{
    "name": "PlayerControls",
    "maps": [
        {
            "name": "GameMap",
            "id": "a72fac51-b91a-4691-9488-44e3105d8476",
            "actions": [
                {
                    "name": "Movement",
                    "type": "PassThrough",
                    "id": "05629ffa-3156-4714-a886-c30f43736d4c",
                    "expectedControlType": "Vector2",
                    "processors": "",
                    "interactions": ""
                },
                {
                    "name": "FastAttack",
                    "type": "Button",
                    "id": "c5f05b68-1012-4757-9f3d-36921d716f1e",
                    "expectedControlType": "Button",
                    "processors": "",
                    "interactions": ""
                },
                {
                    "name": "StrongAttack",
                    "type": "Button",
                    "id": "192be7a6-8eb4-44d0-98ae-f2beb5c27710",
                    "expectedControlType": "Button",
                    "processors": "",
                    "interactions": ""
                }
            ],
            "bindings": [
                {
                    "name": "2D Vector",
                    "id": "cd63ccea-9c3b-47f5-aea6-d4fd0a3b82e7",
                    "path": "2DVector",
                    "interactions": "",
                    "processors": "",
                    "groups": "",
                    "action": "Movement",
                    "isComposite": true,
                    "isPartOfComposite": false
                },
                {
                    "name": "up",
                    "id": "6bdf7541-e19a-446e-a0cd-89eb2f0a64ae",
                    "path": "<Keyboard>/w",
                    "interactions": "",
                    "processors": "",
                    "groups": "",
                    "action": "Movement",
                    "isComposite": false,
                    "isPartOfComposite": true
                },
                {
                    "name": "down",
                    "id": "22cf2ae4-6c47-411b-9f7b-c50029dcd1d9",
                    "path": "<Keyboard>/s",
                    "interactions": "",
                    "processors": "",
                    "groups": "",
                    "action": "Movement",
                    "isComposite": false,
                    "isPartOfComposite": true
                },
                {
                    "name": "left",
                    "id": "29583e71-4828-4600-b644-3ab700365015",
                    "path": "<Keyboard>/a",
                    "interactions": "",
                    "processors": "",
                    "groups": "",
                    "action": "Movement",
                    "isComposite": false,
                    "isPartOfComposite": true
                },
                {
                    "name": "right",
                    "id": "3b9695cf-4d87-430e-bff5-288af7c0595a",
                    "path": "<Keyboard>/d",
                    "interactions": "",
                    "processors": "",
                    "groups": "",
                    "action": "Movement",
                    "isComposite": false,
                    "isPartOfComposite": true
                },
                {
                    "name": "",
                    "id": "82eca8bd-04e4-4916-ae9c-c435ce02589f",
                    "path": "<Mouse>/leftButton",
                    "interactions": "",
                    "processors": "",
                    "groups": "",
                    "action": "FastAttack",
                    "isComposite": false,
                    "isPartOfComposite": false
                },
                {
                    "name": "",
                    "id": "89f3ee1e-673d-44b5-b849-9d15b3d3fea6",
                    "path": "<Mouse>/rightButton",
                    "interactions": "",
                    "processors": "",
                    "groups": "",
                    "action": "StrongAttack",
                    "isComposite": false,
                    "isPartOfComposite": false
                }
            ]
        }
    ],
    "controlSchemes": []
}